$ANSIBLE_VAULT;1.1;AES256
32373035626530633164303834653762646139316662623365353566326363383430366539393639
3663326261393734646633313638313634393535363532310a643366643962386265386535393764
64353735386530333664643634633436343863313338643435356233646164333562323637616436
3062383265313366390a333237373564386365616435366634343762386136353861623231616339
33306331306164376563363735376138613663343666346431323563663637333132353535626261
31613635316161326135336562656562343565363861363230623337313535613361663935363762
36633434623337663031316635333932653933623230336162336231313862316636646139353963
63373731666263653761393738346635666432653064633635633536333661373338393331343761
36313164336538656266613235306138633535303863666462323761323733303937303232646534
31663530323562656463643239663931303261373964643262656138306131366266623463663063
34383131636564326334633064393164343438336562336330643733613161623531336262346566
65356236393566626563633636353165623266326433353733313439303261663761663862633039
38323263626565303438386665363537313739633037346238313230666133373231396331333132
36643935326662346433333739373430383231303432656130646663663464303761376436656131
32613134386464643836616639353531316134336461636339306139666136663434616664333632
66393063383065636635626530353664613431353038303937303037613262623431633766376133
63303435353166313963393439393961623634346539663630336164323130616232643964333738
31653639323763306262623864396134636134663235663536393739643665633331326432363735
66616335376630393333656133373362376166656633313961333866613034666561386137336536
32646366633263666532393939363832323034353561386636316366316264666532663536323133
62663430386633653432303630373035643166356433663330383065323837393236393837316566
66306236333263303935663064653566636365656661306265363366383163633964653533663635
38646236626563313137343231376364663930316134666634623237313935613238626461633366
61646532366239386538313864636331386630343835343335643732353830623630663063623966
61383666396364363036643765663133646332633838373239373930386162623766663235383634
36333664366663393034386132343832613539663932623038643365663166653736393463363435
31316562383662366163383365336139643334356466663861313066653361646636363162643635
36623633386262666538346239646132323864373561383135343032303537653562666633303439
30653739616366393930303665343737316363636663353035616134623232346332373566623964
30663137366238366136353634303661316461663435396235663861366162343233316564636138
64623762303063613139663532636139646438653931623933636265363837353330303138356537
37383630373538643337313137383165613230626438656432386661663066386262306265653934
32626262663933306638616566376433383962636164376463396662383461303734626135623538
63353038636432376135663963613239626339313731386664396362323836316465363861313230
62396566383735383732376234643162643233393664353164343232333033643034636634356362
37626263343336623231343930626136393038626434346364303834633539373331383264636132
38613266336432326164346339316334623830656535666335646337303234613165633264633563
37653462613865343531363239633562366435356534656636353438386234623637303139663337
33393965666666313862336564653139663663356362313331313932323762616332323935613239
36623031393830306663396433396439343930623338663734343333343030343436353434356534
35623666316364356139373365613837613663306632326631663739353164663337333134323130
35613132386136346432373965396639366465613234613036383938353463316438643231316161
39336662386337613263313863333132633630323435383366383335386261643262666365653731
39303632653533343031376339633261623666663130623432353033313932353332363132646137
31333964376436363962366233643230316537313730303461646263666633626463666636353136
64656230353138393139333633303031656436353533623934353762386234396262386164623266
65313733653837666639656632613932633837326633626236633735336435343039316330316639
32373233343130643235353738646635363866653030393035313933313464323834366630326362
61356438306630313666643633376634343062636636643534646264666230353137356364613163
30313934666161386463613731663233303739313131373535623666666261393738623437336435
30303266386661633436643935373564306339656535333434303533626366393665663538636534
39393765393135633739383031666538383362383365326463653834353839653161663731303362
35613935323664323266306237353538366163643830383734343432626462343437386361353535
34303438363062366531643866653666353431356435393437303662346362653262346636636439
35316264363163383838396132313363666465623539363035383431373330383837663632343263
31383063663361656637633130333537373961363630376135333664333932643962393330666434
33313231623132613338353335366634303737383530653366363835626135623032366336356561
38663261663039613066353966333764323765363832356366653430336634633636326362363233
63623465363632393761653531643362616433346137663361333164363630663862393335626438
62363337333863353134633062616631336165383239396366303464323339323064623930333634
39353636656330636638393438373931303039616661326534363739333238363532383637323536
64306238616131316665333261663963326536653136323633353361326136613461353763326461
38393864613032626631336166383866393965623865646339623532326265346339656430323564
33333032396565376134633436336138633735376133336535653964373437336363346562643930
33393838376465346130313063353962366633376165383237366433373133643733643639363833
64306464343466323136303830386463333436353962633365366263323930326235613339376637
34623161656236633639626638336236333266373264363039643534366230356533623863316566
66663632646464376661376632623930333865653337626463623138303535643335353537303034
38376634373338663561303033356565663662346437303563643232633165663831636263613366
64623735333965343463663630396264366563666636376663616465303238643639653838343932
34616233306265613832613938613038343261393661353935396235643431646137383836326139
65353065303537643432323535376633363764326636333466646662396366306535656633623035
36396432613539346664303530353435636330653766396637646530313530333538346531623564
61633236646234663161636636303335393865393761653031646135383136663132356165313761
63383032656362393039303263313162383839383865376438613238333062356362613634636335
66346639343964396466643263613931373636363461616337653234386663633632656134303239
66343232623634663561653939323962663763636134636261653763336433623864373238666239
35656135616131663239316665363461616665623761616563633163323063363236343237626530
62373064373664613230313238653034333335333235326132323632356538626639376232306564
63626531653266303635356561346139383236353466653130306130333936626538356636626330
64333535306336663630396466386337356538656535333639373337633264366239326433313030
39336339303263323763383865353835316562666461313036313266303463623036626232653331
31653335616237626233636264666561643035346263653365326335353865656539376232653433
65623563323736353030666161663166623164316238303935363431626365653734316661653736
31303431663236343366636638323838303833616130316536303264633764386438636638643331
30626162636631643437636430643534643164633530323938326164633661393261363838303131
39393833393865323662306362623861656536633031643333633137623563666263356334643264
38623039323631366465383231396239373765393661383338316536643433363464323931376132
32333064666137363965356631613662313033376362666635373334643531326333363963373430
35386263306463343835303437316666373064626264653562396165613038616363333431666134
37646166306237633233313732363866336561333865326666333030336366653561346633376434
37336364373438383963326336343531306339343865623839336133303063636364306238663830
61323561303833653132363332663637643436306631383338326336333562316164393034646430
66366565303765393437366435353563626265643436323432323631373436323137613634326536
33353933363039626634393537346435383562663834623437613036653063313732353932383966
36313565353563386135633665356537633435353166663562326563626138636663326637346238
38663236653537333730643263313861653562353432663164656332313538643537646434393736
32633035343964663839633362643936626638646265636164653565346532303533363637663638
31326639326539616534376436623633616231396433316339613039383037313631613662306634
31353430316330363036656265373465346333623363343761373337613936393338303362393536
63326538653366383863363134623435346461303330353364373266393530313430326532663034
61313464613066643134616263313435313763653364313837376434613732363732323836386635
35643237656335633066393032326462663435636362386233356636636233333064623562396332
65643865333334326663363762633838633433646162666138336136303361376363316634316437
37393665626339643830303864323430626436663661666466613137646136396564393731383235
66626165343336383432313764363466383861313839666262316336373162366332336461366365
35383665346138636132353234336336346137363162346433326463363863636465663435363436
31343761363263346162653064386337663235623463386337643737356561313430653635653765
63626231326265656664333734313161336630616161373662313638366237373464623965666137
35316235396565353839393263353539653463613731323064333036383233653434616439363935
66363037383834373636303330326165616439623434306164383339393637623766303331343330
38303731643864323365363531373934646361653561666633383732386463353232316464373066
33346534366335313862633064313966653063343834363836643138623235663637396561353365
37616134303733636264656262636666613830653862616264356561333063613963626336393030
36333639623462396466663435623438306362643639613265653362333837663332653262346535
33613363313635303762323662333265313938626137636637336431393564613538316637326230
38613339383063643763306438653130383830376665616334313635333736626537663639386463
39323066646563303538633136346262623032306261326563376531613537316665323631623761
39393633626235376438373936316434626431633035666235383264393832306536366264633064
62636231323730356533613134353166353361323434623739656334623230393936306561313639
61353833303066363165326561366432333634306462333432336264303139306334626533643062
31636461323135393965373537313934373736373933663432633235323933306266303435623761
61373966336561666637323434333261376163656431393631633264643562366130393737653832
37323634653539613566366362646437623837303262626237306233393231343364383034393034
31376631316165323331626535666337333936663038333466356264626461363361303163663538
35623065373435623039313136363363373439613335383535366538313238393937343632353666
32343832316634323763346461313635323463633064363339383465343236386433356438626362
65343865393963613633376534323033623562333266313235393761316639636531383434323839
36623430363865663435623739326261343031363466353439383035343839383063346466396266
35386538313137656362393733303536386130613664633366343465633562356139363933303631
63316166326333326462393661323932633139333233653731623836343962643834323930663865
38633032376533633935616236666264306338383164613933316162666363323763663132626432
33633463633662633433623038663530613634356237393863303737643862363336366536373930
62326334386164613034663262396561316532366263653462646239396638323363303739306330
39336261643437303332366233386161353537363666376164626663353238623135656165656566
63393662393339363464633932353763303935356631386430303865633566303531333837323132
32373435643532313634343536393461353232613437333638363537666336313437633339623737
32643735356431663330626333663362666331653262343934653063663639343831626533316665
32323131643935393338353166643338653233643365333761393565653435306638383832643333
30663663613363303133363835666239326134393165383965366665363133623736373666313264
61343030363532323330343734333262366562333630323464353162363966666361633666373133
39346535643466643737346663326663383532613762393135383566623839636330656466613262
37376234343165643965656363626637313636343635373163626239623138343961316665333634
30663066643861383432383536633261363639643262386466336239306539313565646438666234
31356463326166373165616534326562653932333239333863316231373635326533376631643931
65623035303566343336313762363133373933346432636262666262363066363261613931613961
35616264396165663661656438613763633962616164363662656263333238356362643264383733
31646664623238313265396663333864383534306361623938376466373432646131636634313036
38613133626431356163326365636430656130623864303530666539373966313362383364643332
66323234333637636134336631323534613037663634363761326334316237353931646634326234
34323137346563663666656463363138653262303265396461346261646135623230663833636532
33303739613834653039653339633034333933666364336337646263356231663734383033343136
32623766373135316633616338623439376533333538376638666537656463373735653334326431
32383362303634653864333964373130623735633561636236393730623266633137336338343532
63663431353530623731333563316366613739373639613237393362313430633562333561633831
34646633636537376438623061316238333939613164626161356262383932656335373931336164
32646536306363396365383261653162356665646136386236616334383633323837333838373632
30396361666338616463323861326331666564656339303038373864303334313537613436376535
38316265336364396662366264393333343265643063333962633764343337303261356164386436
64303932383765663431636661316266366162383037343761363963313864323335343038643537
37306266353535623138353863356337303837383038356462313861353739303331306433356130
61376633623134373461636335316566323863376130363362353566323061383435643061643336
32366165313939333034623834643864323835353633393966313832646265303539636664613061
35323833616531343465653932366265356665326264303632383635303664643636333133333264
33353135663636306530616265643161616530663839353633316565393763623565613633633639
32363739623037623364636137323636306262306537313731356430666466653430636366346563
35393736666265636435643330333939383631356463383566633466306366303533646437363765
39653365373261346165323834396337323134333835383266366462373430356364316338623232
36643264616435313739393661383330626266383234666466383138666438313631343334353330
61643139373364633264666437646237356664626231353262613734623863326436383731626139
63313038336333646361373531393762653235633136633930636635343463363535373934633030
64613465623930663332336233323530633739303930626562643535316533643766663636616439
33393361313432313234663561383237346465356337363131373632366132336636663032313431
36626130643536336637613732303032623463633664376131343938356333366630313266366165
66376531666337393731353064643530656566376363616363306537653264636563613033626535
61313931383737336463336431303835633632313965623064386666343562383735366565396232
64393932633132376135643137313838353039393935356632386130623633623236333766316361
35386630313530373364336663323466343132336462666334663264663931333632666633363338
63613738313165353532613662383831346561633132636366626538363231303265323462663634
37616437353431633731616163643339316264626264653864343435316466656331656261376364
34356461663937366638333463303933383634323636336636643137653461386564613338303330
39366334306361346332396431373765376235633635336136663331653265616661633165313833
62386430396564323066313630613662383533386130633565336564623566376638666637663161
35633466393934633365363563656130633134333062623734383136633133616662376366633561
64663238386130646431323535626366636563613634363635643238393061656636353666306137
39393165353064366137326439396636356131396337396362303661353865616166376539333465
33383535356264383837316635663738653763303464393461366561656564303066316463393665
64623864346236633561373036646466306564643963323138303765616538353265373963646335
65633237313861326437663232633061306432366161353835653062336434383562376539333565
63626235343431633931303965336661623432323766636136633539306563353239313465306339
66366334303461373065643962626531396235616138346233623035353036353436323265303036
39373266353933646464393434363138366435613932653838656535316163336332663766326662
32386534373332626136333330376436353964316533393230663833613233353265336236633936
61326638326131643537666363373733666363383861623734643264386166343766363933313539
62613665636335656337313235663331386261353063363231666337343534336565373337653630
66333136386238613762633831646535633131393864343935353564333361613239333039383134
34656235306136613534666338393037316437313139616239633463303930323638393462303761
38323963323137373464313833393261356164303464356666613865383334623561356639656331
65666237363565323238303532656537663361393861646439643831313539323761633738316232
63666466353734636131373038306635633661356537353731353537396566346162323734316236
33663737646433336431343431633535393363653534313365393864663163366263636433323364
31323931643232383266363032616363353665303333353861356561643337663736666135376566
32323639633336393539303864306234313530663738306231396263616430373333663666353738
61336131313637336666376163653262343839303431326264313434646364303164656634326463
34633261366130323162346562333264643230366433343136303830313961653465643762333661
39646431633731386163663661366261646532656433633330303066393863383661366334373238
31383762383961613566346636656334666435353733333961323532626534303463396165383266
62323030306334383836623261326437393935663338646430636330656161633230363466386132
32663137346535353862336662633739633864616361356265316536383433386266643630623138
61363962323530323035343635326531633938353439333063646332323435653437393561633735
61663762333339626235363737313965386362333430643066346439366366323039326534356165
36323939373536646635303237643364323139363639323763306166636330623433633230343737
34353234346439633463626561326463646333666562333531373337373661313837636531633837
33643435613666623333306531646230303338303633343331633635623433616165333034393532
39343932323830373937383731653134353734613164323439373663616137636263616537323365
33633535623534643930303039326632333339353437353933666636373539393762313864336164
34393166346432666434643539626434323332353435643130633834313237626534656261303866
38336634636332663038326561613461356265316661653234353433653532343139323962633236
66386261396631353134323632383363326338343638356164323833393763633261316638376635
63393730653433323062363137663632313363663636366530306530663235346331393238663439
64373564613032333066303335343939396534353665353564383633343465613731636638343833
33613461303132646361363664376532356139383362303166373636336635643033653763353331
34343265623636353465323666353363346463613535666131623766323162323430396138663964
32373631386566656337643962336262306666633136646261623839356166343163373561306465
63323238343333646133346462323366373934666434346232643062303466613062363763386564
61663134613830333736393465656135376331663934303438313034643033303461366663393035
64376166653665623562373361313464653565613135616265636262373363306130303261613561
32633331326334626433373031376134386331646432303131663665633434376236613538376538
66333931383932376230313733316365323461313366373536393434333434396237646539353931
39646266303133333834386434343431323738306134656339373066356131613562383062633265
65316535386532333336353339666236316461613535373435396465653737653964666339666436
33303261326364383033653165613666383566386666363965666138666636303737656563303230
64336665386434613861623636656338643532353234623966376464323434383161623830393361
65396135633965313661663933396532306338383763626538333631616239363366393333366430
35613463323565393835326137373432373262626339343534366234643135316638623666393432
35333134373037353737313331616263346163643562666163653236646466356339333265316361
34616532646266353963323739643138626430303761333163653030383734336237363530666439
33346230333034633136303631333539626137353864306432303737373266623931646230333332
62396131623039313433623661663464653332303863376437626434376437363762373437663638
32636365656533646164333631306161353632373330623230343630393137653962653461626338
63343263663234306164303938313738616535363766343432623765643336396566323262653732
62366134306366626232643138353439303633383934306639663536646435333335386236316261
31656265323439316337633633336339353863373534303539653938393730663937646366343531
61346464343466653165376361646238366434386665306230383135353935636430363533653137
64313262383266383338303937613339376436353732386536633532363062376632666338663962
37313264646632346132616465623266653334653063373661353235626637336465653862323536
63616665663234303935323733613263313161313436636334393238393137313839346439366337
31366530623039326636366662323438383737653433366530333134373131343933653331343862
61643862626262373537303833313033653338653837366364333830306636383431356437353362
62313334353564383065613230363965333762656664626630646666643665643632306464303164
38303634613561653130386231663238373131346337643736376361653233393062663839346236
65653632303063623037383162333539393464373337396339356566636436366266336432666436
31303831393135396166306135323032373031303233333335616365333832366531366138366639
61663932623830663561343037396238353132623033313831313962643861336265373264306664
62383131633337306563396366383235663762656161343466326235336162663965663133333432
31343736336539336436343531616336666261613932656534633136353232396439343262353863
39373862616462366561366232333663326532633563633262306234383938616131313636646163
35633031386161343531303037323764353834386565663762643531346230363739373334393332
30636238663834313735353339353433313231383164663335636563626565306664626132643965
36313061306636663437373064333562663266646264306436356538336536643864623336303438
33363966393165323230386438306234383661306363633433376366363132653331323965353638
61363437303633653866363964373264656335333461643936306463626238623731363336326432
64653230653564373031316133313433396236613736636565313836333464623363616132363437
62626330626438666664626330643563613661366265636630616631653261643166613532383538
66356561313465386139643563323834666465356632666138393837343463636232666632613434
63343766666631626266626432313437666266633161616132353732633432336365363866303536
66363738356563346639373763303035613134666435613736643839363337633636336231363437
31303330396431336131393163323137663264333062663362386134346431653862396166386665
32313261316364323132333361313564306536623662393231353836373565613336346535646131
38616639633063376263303738393935393435323136626534633730376430336531663538393237
39313930326631386132346533633064646665623038356234613966396465653766316138653062
36666363303337313931633832346235663730346364353335353035643336636639396531323734
32336435663330643834666666346637373435373630616535376161666235633465643466323830
30356131616365343538303266633065373530396330373936333861386132313337613338656530
31323363656265623233366133363630653330646166623038636334336461343839336436626465
34626662316631333762376363666564616263336633633834633561383631613139623734366234
32313465343963373863633065383537393164383739373735323931326132393439333231646361
30396263346636333238313730373232663434356332383865353738316564663838656437356531
34326631636132373232626666353030393733373237633335613539363065356432323437343265
62656264343730373638663433336134343963326466376463343461383731626432396431386261
31313236353836393837383635306163376539633166323430346334303239383465313733653261
37346435326265323964336463336462633634366366396539646537313435353132323233366361
36633737656439616365376235353939646139353332303730323337343536343061356630353536
63623838633464623466383233393138306532333961623930333030326437613564353963363839
33306132663765373732336261313235373462363136656432333232633131623032373237333966
62353636656561316131306630663534396162653237663631646332306434633936386164306365
63653038303964376662363866343136346164613565633839393466646265313137383032626334
34396337646434383732356432373330363563366363643230366361646563303037343262373533
38383235643763346238666232613139656561616262353631616131633839343537383936646238
66623531643930333637666536666163656633666465656363643737633230643339343862643463
38666166343734636164366331653734333464386663353966356164343634313734643035396530
39653531656261653765333338346632633166653266356364646264623336353865333431623130
30373462376632623339316565363662613437306635616265323366366666666431353839326564
37666266623030383065383139643534373635343633623131373134643932613036366565323134
36363863336632343932383366646463316332636338366638343134653636363231383163643931
34663265356436383932323566323263326265343132633138333862663264383037373339636334
37633136633266356664633230623066663564613364643037636639343736323634633465613439
35333266326362623237633261373439633330383135383833623738356132613539303337333730
37616637656234636531316362666132336435616561383132626433626534333235616436396435
39316138303466336337383565373466643739303732343763313462663031633536363064363662
37393931613137646663303639306638386230336337323265633863333534393433653665613135
65313831663133303832313231333831316635303737343865356438613065646164326265323833
39613837636462333234393535386264376334626532303336303434373737333338326130333564
33366334346435643133646530633166643963333938323539636565333134306137323332306432
64323533636138613263663065396466633966333736316362386539393635623533643933643962
62663862623033303435353164303136633931633437633765643132666437383932353533626466
36633835613330623039656533336230346334646530346630623135653231656238336236393632
32353963653939343134643564316463653265393532343363626231386332396562623630353433
61353765356431373764336261323962343234386332393362656463633433646661646564353662
33373836303263353935383930626139373237303230356533613739343736663964316562623163
66363464643434633439393561353430373462663533353438653565336139396438366335303337
37653961346130396333316635613030613633343535366434373066623035343535616339356333
63356639613335653835306330316435653433663433376663313138333462396534386435353365
35643063393463373461366465393065396465386334316134303338353734323631646366386439
32363264633736303432666536373937356230656136346462386665313563613639616239366134
32653631303839383437393035616333326136663062303664633631346532333964323636336166
63303638306337313866623731666533636432623337613437613563363962323033383564656232
63616534386466626434663135343832656565613436633164373636363065306161643432356462
64383166646138346162653238656633663939343136393965336365613738616633313738623261
35373933366433613731343536363364633162373932363662353264626533326166343730353166
36393138616331356465313139333665393238323264323262613836636466363339653161633935
30383236353861663065333764323732373430663363303736666138373632396462303637386562
65656635663637646238666334616335336365393762636661396236383030343630353663663534
35623966313866666631643030333038623961323336313630303931616633653437653934623665
62656338653266326462393264323437383761633130316231353735303734636565323931343966
64396366633266386532386163386535633261313364383138353934643961356233343538316363
32366135353561313930666365383763616433363337633637623138663366656630326232393239
37373464316263396462303330353366656261316166336534636466386434363237626462636338
65616631333166316134353565383930363930316661393638323830373431633632343237366638
34303561633330373262303533343937323730366339363937333634636266353039363162613834
65363633303462393737393736656235373335393536636466323132653337326237623733336463
39346131363136613838316266333064396665316137623134396566393035666432323761633237
39343164363733353336323734356336656331653839616463613663336334373761643063313934
31343364626433373466663462616235333935643436333534623434343864363164356461623535
37363233383638643737333364616664306534326438303761613837656266663732653431656237
37383535316533376462333533656465343565346538313462653962313462326664643363623733
62386666316233373834616530393464663531343965643735346164383534636635383765346264
65323465386563623636333962373231653437303363313363663461306635343636613938343231
32343037623138366538623438363963333732613866643932666662383230383534393436666338
37333066613930346266313831303232623131366165336666326537366662346664653030333864
30643535306238366139333831393865626532303732333635363664333639386235
